{
  "Actor": {
    "types": ["character", "NPC"],
    "templates":{
      "common": {
        "proficiencyBonus": 2,
        "abilities": {
          "strength": {
            "value": 10,
            "isProficient": false
          },
          "dexterity": {
            "value": 10,
            "isProficient": false
          },
          "constitution": {
            "value": 10,
            "isProficient": false
          },
          "intelligence": {
            "value": 0,
            "isProficient": false
          },
          "wisdom": {
            "value": 10,
            "isProficient": false
          },
          "charisma": {
            "value": 10,
            "isProficient": false
          }
        },
        "attributes": {
          "armorClass": {
            "value": 10
          },
          "hitPoints": {
            "value": 10,
            "min": 0,
            "max": 10,
            "temp":0,
            "tempMax": 0
          },
          "initiative": {
            "value": 0,
            "bonus": 0
          }
        },
        "activeConditions": {
          "isBlinded": false,
          "isCharmed": false,
          "isConfused": false,
          "isDeafened": false,
          "isFrightened": {
            "target": [],
            "isFrightened": false
          },
          "isGrappled": false,
          "isEncumbered": false,
          "isIncapacitated": false,
          "isInvisible": false,
          "isParalyzed": false,
          "isPetrified": false,
          "isPoisoned": false,
          "isProne": false,
          "isRestrained": false,
          "isStunned": false,
          "isUnconscious": false,
          "isDying": {
            "value": false,
            "saved": 0,
            "failed": 0
          },
          "isExhausted": {
            "value": false,
            "level": 0
          }
        }
      },

      "creature": {
        "attributes": {
          "movement": {
            "burrow": 0,
            "climb": 0,
            "fly": 0,
            "swim": 0,
            "walk": 30,
            "units": "ft",
            "isHover": false
          }
        },
        "skills": {
          "acrobatics": {
            "value": 0,
            "ability": "dexterity",
            "isHalfProficient": false,
            "isProficient": false,
            "isExpertise": false
          },
          "animalHandling": {
            "value": 0,
            "ability": "wisdom",
            "isHalfProficient": false,
            "isProficient": false,
            "isExpertise": false
          },
          "arcana": {
            "value": 0,
            "ability": "intelligence",
            "isHalfProficient": false,
            "isProficient": false,
            "isExpertise": false
          },
          "athletics": {
            "value": 0,
            "ability": "strength",
            "isHalfProficient": false,
            "isProficient": false,
            "isExpertise": false
          },
          "deception": {
            "value": 0,
            "ability": "charisma",
            "isHalfProficient": false,
            "isProficient": false,
            "isExpertise": false
          },
          "history": {
            "value": 0,
            "ability": "intelligence",
            "isHalfProficient": false,
            "isProficient": false,
            "isExpertise": false
          },
          "insight": {
            "value": 0,
            "ability": "wisdom",
            "isHalfProficient": false,
            "isProficient": false,
            "isExpertise": false
          },
          "intimidation": {
            "value": 0,
            "ability": "charisma",
            "isHalfProficient": false,
            "isProficient": false,
            "isExpertise": false
          },
          "investigation": {
            "value": 0,
            "ability": "intelligence",
            "isHalfProficient": false,
            "isProficient": false,
            "isExpertise": false
          },
          "medicine": {
            "value": 0,
            "ability": "wisdom",
            "isHalfProficient": false,
            "isProficient": false,
            "isExpertise": false
          },
          "nature": {
            "value": 0,
            "ability": "dexterity",
            "isHalfProficient": false,
            "isProficient": false,
            "isExpertise": false
          },
          "perception": {
            "value": 0,
            "ability": "wisdom",
            "isHalfProficient": false,
            "isProficient": false,
            "isExpertise": false
          },
          "performance": {
            "value": 0,
            "ability": "charisma",
            "isHalfProficient": false,
            "isProficient": false,
            "isExpertise": false
          },
          "persuasion": {
            "value": 0,
            "ability": "charisma",
            "isHalfProficient": false,
            "isProficient": false,
            "isExpertise": false
          },
          "religion": {
            "value": 0,
            "ability": "intelligence",
            "isHalfProficient": false,
            "isProficient": false,
            "isExpertise": false
          },
          "sleightOfHand": {
            "value": 0,
            "ability": "dexterity",
            "isHalfProficient": false,
            "isProficient": false,
            "isExpertise": false
          },
          "survival": {
            "value": 0,
            "ability": "Wisdom",
            "isHalfProficient": false,
            "isProficient": false,
            "isExpertise": false
          }
        },
        "traits": {
          "sense": {
            "value": {
            }
          }
        }
      }
    },
    "character": {
      "templates": [
        "common",
        "creature"
      ]
    }
  },
  "Item": {
    "types": [],
    "templates": {
      "itemDescription": {
        "description": {
          "value": "",
          "chat": "",
          "unidentified": ""
        },
        "source": ""
      },

      "physicalItem": {
        "quantity": 1,
        "weight": 0,
        "price": 0,
        "isAttuned": false,
        "isEquipped": false,
        "rarity": "",
        "isIdentified": true,
        "isCraftable": true
      },

      "craftableItem": {
        "recipe": [],
        "DCThreshold": 0,
        "relatedTools": ""
      },

      "breakableItem": {
        "armorClass": {
          "value": null
        },
        "health": {
          "value": null,
          "max": 10,
          "damageThreshold": 0
        },
        "isBroken": false
      }
    }
  }
}
